{"status_code":200,"message":"Transactions Found","page":1,"limit":5,"total_items":41,"total_pages":9,"data":[{"id":1,"type":"in","product_id":1,"quantity":3,"note":"note1","session_id":"","created_at":"2024-11-07T04:15:13.768891+07:00"},{"id":2,"type":"in","product_id":1,"quantity":3,"note":"Received stock","session_id":"","created_at":"2024-10-30T10:05:12+07:00"},{"id":3,"type":"out","product_id":2,"quantity":2,"note":"Shipped to customer","session_id":"","created_at":"2024-10-30T12:34:45+07:00"},{"id":4,"type":"in","product_id":3,"quantity":4,"note":"Restocked","session_id":"","created_at":"2024-10-31T09:15:33+07:00"},{"id":5,"type":"out","product_id":4,"quantity":1,"note":"Sold at retail","session_id":"","created_at":"2024-10-31T14:50:21+07:00"}]}
